{"entries":[{"_id":"681395e34230f2f7f3f1f936","jobId":"681395e34230f2f7f3f1f933","status":"completed","metadata":{"erfassungsperson":"Peter Aichner","gemeinde":"Brixen","flurname":"Brixen","latitude":46.70337449782411,"longitude":11.668898428700324,"standort":"Brixen (46.7033, 11.6688)","bilder":[{"imageKey":"Panoramabild","filename":"1746114002353.jpg","url":"https://ragtempproject.blob.core.windows.net/biodiv/naturescout/1746114002353.jpg","analyse":""},{"imageKey":"Detailbild_1","filename":"1746114002454.jpg","url":"https://ragtempproject.blob.core.windows.net/biodiv/naturescout/1746114002454.jpg","analyse":"Arnica montana L.","plantnetResult":{"score":0.86707,"species":{"scientificNameWithoutAuthor":"Arnica montana","scientificNameAuthorship":"L.","genus":{"scientificNameWithoutAuthor":"Arnica","scientificNameAuthorship":"","scientificName":"Arnica"},"family":{"scientificNameWithoutAuthor":"Asteraceae","scientificNameAuthorship":"","scientificName":"Asteraceae"},"commonNames":["Arnika","Berg-Wohlverleih","Echte Arnica"],"scientificName":"Arnica montana L."},"gbif":{"id":"5405976"},"powo":{"id":"30090722-2"},"iucn":{"id":"162327","category":"LC"}}}]},"updatedAt":"2025-05-01T16:24:42.028Z","result":{"habitattyp":"alpines Grasland","zusammenfassung":"Das Habitat ist wahrscheinlich ein alpines Grasland.","schutzstatus":"ökologisch hochwertig","habitatfamilie":"Grasland-Wiesen"},"verifiedResult":{"habitattyp":"alpines Grasland","habitatfamilie":"Grasland-Wiesen","schutzstatus":"ökologisch hochwertig"},"verified":true},{"_id":"68139b984230f2f7f3f1f939","jobId":"68139b984230f2f7f3f1f938","status":"completed","metadata":{"erfassungsperson":"Peter Aichner","gemeinde":"Brixen","flurname":"Brixen","latitude":46.70337572448755,"longitude":11.668766127918305,"standort":"Brixen (46.7033, 11.6687)","bilder":[{"imageKey":"Panoramabild","filename":"1746115478205.jpg","url":"https://ragtempproject.blob.core.windows.net/biodiv/naturescout/1746115478205.jpg","analyse":""}]},"updatedAt":"2025-05-01T16:05:15.620Z","result":{"habitattyp":"Trockenrasen","zusammenfassung":"Das Habitat ist wahrscheinlich ein Trockenrasen.","schutzstatus":"gesetzlich geschützt","habitatfamilie":"Grasland-Wiesen"}},{"_id":"68139b984230f2f7f3f1f93a","jobId":"68139b984230f2f7f3f1f937","status":"completed","metadata":{"erfassungsperson":"Peter Aichner","gemeinde":"Brixen","flurname":"Brixen","latitude":46.70337572448755,"longitude":11.668766127918305,"standort":"Brixen (46.7033, 11.6687)","bilder":[{"imageKey":"Panoramabild","filename":"1746115478205.jpg","url":"https://ragtempproject.blob.core.windows.net/biodiv/naturescout/1746115478205.jpg","analyse":""}]},"updatedAt":"2025-05-01T16:05:10.274Z","result":{"habitattyp":"Trockenrasen","zusammenfassung":"Das Habitat ist wahrscheinlich ein Trockenrasen.","schutzstatus":"gesetzlich geschützt","habitatfamilie":"Grasland-Wiesen"}}],"filterOptions":null,"pagination":{"total":242,"page":1,"pageSize":3,"totalPages":81}}